:18000000C37001FFFFFFFFFFC30480FFFFFFFFFFC30880FFFFFFFFFF31
:18001800C30C80FFFFFFFFFFC31080FFFFFFFFFFC31480FFFFFFFFFFE6
:18003000C31880FFFFFFFFFFC31C80FFC3700100C3200100C3F0000039
:180048003A2C80C9C3650000C3650000C3650000C3800000C360000013
:18006000ED45FBED4DC9C32080FFFFFFFFFFFFFFFFFFFFFFFFFFFFFF04
:18007800FFFFFFFFFFFFFFFFF5E5DB800F3030DB816F3A2C80FEFF30F6
:18009000217D2A2480772C222480212C80343A2C80FEF0C2B2003A2ED2
:1800A80080E69FF640322E80D380DB800F38D00F30273A2D80B7CAD7BB
:1800C000002A2A807ED3812C3E3FA5F6806F222A80212D8035200A3A1C
:1800D8002E80E6DF322E80D380E1F1FBED4DFFFFFFFFFFFFFFFFFFFF6D
:1800F0003A2C80B728FAFE08C20901F33A2E80E69FF600322E80FBD363
:1801080080E52A26807E2C222680212C8035E1C9FFFFFFFFFFFFFFFF94
:18012000E56F3A2D80B7200BDB80E60228057DD381E1C93A2D80FE3F9B
:1801380030F97D2A2880772C3E3FA5F6806F222880212D8034E13A2E78
:1801500080E620C0F33A2E80E69FF620322E80D380FBC9FFFFFFFFFFE9
:18016800FFFFFFFFFFFFFFFF31A282213C00110080012400EDB0210061
:1801800081222480222680218080222880222A80AF322C80322D803EF7
:1801980003D3803E92322E80D380ED56FB21F001CDDF013A2F80FE59B9
:1801B000C2C801211E02CDDF01D7E6DFFE43C2D001CF3E0DCF3E0ACF4E
:1801C8003E59322F80C34002FE57C2B901CF3E0DCF3E0ACFC343027E4B
:1801E000B7C8CD200123C3DF01FFFFFFFFFFFFFF0D0A52433230313468
:1801F800202D204D53204261736963204C6F616465720D0A7A38386404
:180210006B202D206665696C6970750D0A000D0A436F6C64207C20574D
:1802280061726D2073746172742028437C5729203F2000FFFFFFFFFF2F
:18024000C35002C3E402FFFFFFFFFF010BDA12C0210082F9AF324D82E9
:18025800211105015A00110082EDB0EBF9CD2007CD1E0D32A18232F085
:1802700082213703CD0B14CD3D07CD4A0AB7C29602215483237CB5CA54
:18028800A8027E472F77BE70CA8402C3A802CD1B0BB7C2E205EB2B3EB7
:1802A000D94677BE70C271022B1153837C92C2B3027D93DA710211CE7A
:1802B800FF22A68219225182CDFB062A518211EFFF1911F0827D936FF2
:1802D0007C9A67E521FC02CD0B14E1CD9F1921ED02CD0B14315D82CD6A
:1802E8002007C3310620427974657320667265650D0A00005A38302BF0
:180300004150552042415349432056657220342E37630D0A436F707962
:180318007269676874202843292031393738206279204D6963726F737A
:180330006F66740D0A00004D656D6F727920746F70002D18D6184318DB
:180348000382B8127016E612AC1ACF1AB817C51A5D1B671B711B7B1B57
:18036000851B8F1BC416B91B9B158A133516AA15BB15D11C6E1DCB150E
:18037800FB150516C54E44C64F52CE455854C4415441C94E505554C457
:18039000494DD2454144CC4554C74F544FD2554EC946D24553544F5222
:1803A80045C74F535542D2455455524ED2454DD3544F50CF5554CF4ED9
:1803C000CE554C4CD7414954C44546D04F4B45C44F4B45CC494E455319
:1803D800C34C53D749445448CD4F4E49544F52D245534554D052494E47
:1803F00054C34F4E54CC495354C34C454152C84C4F4144CE4557D441E3
:180408004228D44FC64ED3504328D448454ECE4F54D3544550ABADAACF
:18042000AFDEC14E44CF52BEBDBCD3474EC94E54C14253D55352C652D1
:1804380045C94E50D04F53D35152D24E44CC4F47C55850C34F53D34964
:180450004ED4414EC14353C1534EC1544ED045454BC445454BCC454E2A
:18046800D3545224D6414CC15343C3485224C8455824C2494E24CC458D
:18048000465424D24947485424CD49442480990A8809A00EF20B9F0DFB
:18049800F510CE0D090CAB0B8E0B9C0C5A0A9A0BCD0BF40B970A7C164D
:1804B0007E0CD80A8216EE12CB16C41BAA1B9C1BA21B991B4F02C00C66
:1804C800C50AFF08440B561CFA0679001779E5167CC2177CEC177FB678
:1804E0001A5049104648104E46534E52474F4446434F564F4D554C4295
:1804F8005344442F304944544D4F534C535354434E55464D4F485842F2
:180510004EC3E402C3160BD300C9FFFFFFFFFFFFFFFFFFFFFFFFFFFF6A
:18052800000000354ACA99391C76982295B3980ADD479853D199990A4E
:180540001A9F9865BCCD98D6773E9852C74F80DB00C901FF1C000014ED
:1805580000140000000000C333085483FEFFF182FFFFFF204572726F7D
:18057000720020696E20004F6B0D0A0000427265616B00210400397E58
:1805880023FE81C04E234623E560697AB3EBCAA105EB7C92C2A1057D0B
:1805A00093010D00E1C809C38705CDC805C5E3C17C92C2B7057D937E84
:1805B80002C80B2BC3B005E52AD182060009093EE53ED0956F3EFF9C2B
:1805D000DAD7056739E1D81E0CC3F6052AC0822253821E02011E140165
:1805E8001E00011E12011E22011E0A011E18CD2007324582CD110D2112
:18060000E704573E3FCDC108197ECDC108CD4A0ACDC108216B05CD0B40
:18061800142A538211FEFF7C92C226067D93CA50027CA53CC497193E72
:18063000C1AF324582CD110D217705CD0B1421FFFF225382CD4E82DA48
:180648003E06CD4A0A3C3DCA3E06F5CD1B0BD5CD4A0747D1F1D22A0AC4
:18066000D5C5AF32C382CD4A0AB7F5CDD606DA7706F1F5CAC80BB7C5F6
:18067800D29206EB2ACD821A0203137C92C27F067D93C27F06606922D3
:18069000CD82D1F1CAB9062ACD82E3C109E5CDAA05E122CD82EB74D1AF
:1806A8002323732372231158821A772313B7C2B106CD060723EB626B32
:1806C0007E23B6CA3E06232323AFBE23C2CA06EB732372C3BE062A5539
:1806D80082444D7E23B62BC823237E23666F7C92C2ED067D9360697ED7
:1806F00023666F3FC83FD0C3D906C02A5582AF7723772322CD822A55AE
:18070800822B22C5822AA68222BA82AFCD5A0A2ACD8222CF8222D182D2
:18072000C12A5182F921AA8222A882AF6F6722CB8232C28222D582E5A9
:18073800C52AC582C93E3FCDC1083E20CDC108C34E82AF32A5820E05F5
:180750001158827EFE20CAD20747FE22CAF207B7CAF9073AA582B77E26
:18076800C2D207FE3F3E9CCAD2077EFE30DA7D07FE3CDAD207D5117BCC
:1807800003C501CE07C5067F7EFE61DA9607FE7BD29607E65F774EEB48
:1807980023B6F29807047EE67FC8B9C29807EBE5131AB7FACA074F78D0
:1807B000FE88C2B907CD4A0A2B237EFE61DAC207E65FB9CAA807E1C31F
:1807C800960748F1EBC9EB79C1D12312130CD63ACAE007FE49C2E30791
:1807E00032A582D654C25307477EB7CAF907B8CAD20723120C13C3E9C1
:1807F800072157821213121312C93A4482B73E00324482C2160805CA27
:180810004E82CDC1083E052BCA2A087ECDC108C33C08052BCDC108C25D
:180828003C08CDC108CD1E0DC34E822158820601AF324482CDF0084F96
:18084000FE7FCA02083A4482B7CA55083E00CDC108AF32448279FE0778
:18085800CA9908FE03CC1E0D37C8FE0DCA190DFE15CA2D08FE40CA2AE7
:1808700008FE5FCA2208FE08CA2208FE12C29408C5D5E53600CDEA083B
:18088800215882CD0B14E1D1C1C33C08FE20DA3C0878FE493E07D2AE37
:1808A00008797132C3822304CDC108C33C08CDC1083E08C3A8087EE363
:1808B800BE23E3CA4A0AC3E205F53A4582B7C24414F1C5F5FE20DAE54D
:1808D000083A4282473AA28204CAE10805B8CC1E0D3C32A282F1C1C3F3
:1808E8000800CDC108C31E0DD7E67FFE0FC03A45822F324582AFC9CDF5
:180900001B0BC0C1CDD606C5CD5509E14E23462378B1CA3106CD5E0986
:18091800CD750AC5CD1E0D5E235623E5EBCD9F193E20E1CDC1087EB765
:1809300023CA0B09F22B09D67F4F117C031A13B7F23D090DC23D09E63D
:180948007FCDC1081A13B7F24709C32E09E52A4882224682E1C9E5C54B
:180960002A4682010100ED42224682C1E1F0E52A4882224682D7FE0345
:18097800CA7F09E1C35E092A4882224682C3E7023E6432C282CD090C86
:18099000C1E5CDF20B22BE8221020039CD8705D1C2BC0909D52B562BE6
:1809A8005E2323E52ABE827C92C2B6097D93E1C29C09D1F9EB0E08CDC5
:1809C000BF05E52ABE82E3E52A5382E3CDFE0ECDB608A3CDFB0EED5B3D
:1809D800DB82ED4BDD82C5D5010081515A7EFEA83E01C2FE09CD4A0AFF
:1809F000CDFB0EED5BDB82ED4BDD82CD1E18C5D5F533E52AC582E306D9
:180A080081C533CD750A22C5827EFE3ACA2A0AB7C2E205237E23B6CA50
:180A2000A10A235E2356ED535382CD4A0A110B0AD5C8D680DA090CFEDD
:180A380022D2E205074F0600EB218E04094E2346C5EB237EFE3AD0FEBA
:180A500020CA4A0AFE303F3C3DC9EB2A5582CA6F0AEBCD1B0BE5CDD60C
:180A6800066069D1D2C80B2B22D382EBC9DFB7C8D7FE1BCA920AFE0326
:180A8000CA920AFE13C0D7FE11C8FE03CA970AC3860A3EFF324D82C0BC
:180A9800F6C022C58221F6FFC12A5382F57DA43CCAB40A22C9822AC51B
:180AB0008222CB82AF324582CD110DF1217D05C21606C331062ACB82C7
:180AC8007CB51E20CAF605EB2AC982225382EBC9CDB316C0324182C9C3
:180AE000E52A4A8206004F09224A82E1C97EFE41D8FE5B3FC9CD4A0A16
:180AF800CDFB0ECD1E18FA160B3ADE82FE90DAA618018090110000E52B
:180B1000CD7918E151C81E08C3F6052B110000CD4A0AD0E5F5219819B8
:180B28007C92C22F0B7D93DAE205626B19291929F1D6305F160019EB19
:180B4000E1C31F0BCA0A07CDF80A2BCD4A0AE52AA682CA670BE1CDB602
:180B5800082CD5CDF80A2BCD4A0AC2E205E3EB7D935F7C9A57DAD70558
:180B7000E52ACD82012800097C92C27F0B7D93D2D705EB225182E122E2
:180B8800A682E1C30A07CA0607CD0A07010B0AC3AA0B0E03CDBF05C1D2
:180BA000E5E52A5382E33E8CF533C5CD1B0BCDF40BE52A53827C92C267
:180BB800BC0B7D93E123DCD906D4D60660692BD81E0EC3F605C016FF54
:180BD000CD8305F9FE8C1E04C2F605E1225382237CB5C2EC0B3AC382F2
:180BE800B7C23006210B0AE33EE1013A0E0006007948477EB7C8B8C83A
:180C000023FE22CAF80BC3FB0BCDFA10CDB608B1D53AA482F5CD0D0FDD
:180C1800F1E322C5821FCD000FCA6E0CE52ADB82E523235E23562A555B
:180C3000827C92C2380C7D93D2570C2A51827C92C2450C7D93D1D25FA1
:180C48000C21B6827C92C2530C7D93D25F0C3ED1CD8815EBCD9A13CD08
:180C60008815E1EBEDA0EDA0EDA0EDA0E1C9E511DB82EBEDA0EDA0EDF0
:180C7800A0EDA0D1E1C9CDB3167E47FE8CCA8D0CCDB608882B4B0D7866
:180C9000CA320ACD1C0BFE2CC0C38E0CCD0D0F7EFE88CAAA0CCDB60813
:180CA800A62BCDFE0ECD1E18CAF40BCD4A0ADAAB0BC3310A2BCD4A0AC3
:180CC000CA1E0DC8FEA2CA510DFEA5CA510DE5FE2CCA3A0DFE3BCA7435
:180CD8000DC1CD0D0FE53AA482B7C20A0DCDAA19CDBE1336202ADB826D
:180CF000342ADB823A42824704CA060D043AA282863DB8D41E0DCD0E54
:180D080014AFC40E14E1C3BC0C3AA282B7C8C31E0D36002157823E0D78
:180D2000CDC1083E0ACDC108AF32A2823A41823DC8F5AFCDC108F1C352
:180D38002F0D3A4382473AA282B8D41E0DD2740DD60ED2480D2FC36953
:180D50000DF5CDB016CDB608292BF1D6A5E5CA640D3AA2822F83D27435
:180D68000D3C473E20CDC10805C26D0DE1CD4A0AC3C30C3F5265646F51
:180D80002066726F6D2073746172740D0A003AC482B7C2DC05C1217BEB
:180D98000DCD0B14C33907CD6B137EFE223E00324582C2B90DCDBF1300
:180DB000CDB6083BE5CD0E143EE5CD3D07C1DA9E0A237EB72BC5CAF117
:180DC8000B362CC3D30DE52AD382F6AF32C482E3C3DF0DCDB6082CCD6C
:180DE000FA10E3D57EFE2CCA070E3AC482B7C27D0E3E3FCDC108CD3D11
:180DF80007D1C1DA9E0A237EB72BC5CAF10BD53AA482B7CA310ECD4AAE
:180E10000A5747FE22CA250E3AC482B757CA220E163A062C2BCDC2132E
:180E2800EB21450EE3D5C3240CCD4A0ACD0919E311DB82EBEDA0EDA042
:180E4000EDA0EDA0E12BCD4A0ACA510EFE2CC28E0DE32BCD4A0AC2DBD7
:180E58000DD13AC482B7EBC2700AD5B6216C0EC40B14E1C93F45787423
:180E700072612069676E6F7265640D0A00CDF20BB7C2950E237E23B618
:180E88001E06CAF605235E2356ED53C082CD4A0AFE83C27D0EC3070E26
:180EA000110000C4FA1022C582CD8305C2E805F9D57E23F5D511DB8247
:180EB800EDA0EDA0EDA0EDA0E3E5CDDF16D121DB82EDA0EDA0EDA0ED81
:180ED000A0E1CD5B18E5CD7918E1C190CD5B18CAEB0EEB225382606926
:180EE800C3070AF92AC5827EFE2CC20B0ACD4A0ACDA30ECD0D0FF63780
:180F00003AA4828FB7E8C3F405CDB608282B1600D50E01CDBF05CD87D2
:180F18000F22C7822AC782C178FE78D4FE0E7E1600D6B0DA450FFE03FC
:180F3000D2450FFE0117AABA57DAE20522BC82CD4A0AC3290F7AB7C282
:180F480075107E22BC82D6A9D8FE07D05F3AA4823DB37BCA1915078356
:180F60005F21D204197856BAD023CDFE0EC5011C0FC5ED4BDB82C5EDB9
:180F78004BDD82C54E234623C52ABC82C3100FAF32A482CD4A0A1E249F
:180F9000CAF605DA0919CDED0AD2EF0FFEA9CA870FFE2ECA0919FEAA2D
:180FA800CADE0FFE22CABF13FEA7CAD510FEA4CA1B13FE26C2D10FCD3D
:180FC0004A0AFE48CA2C1DFE42CAA41D1E02CAF605D6B3D20010CD097B
:180FD8000FCDB60829C9167DCD100F2AC782E5CD4718CDFE0EE1C9CD22
:180FF000FA10E5EB22DB823AA482B7CC4F18E1C90600074FC5CD4A0A5A
:1810080079FE33DA2710CD090FCDB6082CCDFF0EEB2ADB82E3E5EBCDAD
:18102000B316EBE3C32F10CDD60FE311EA0FD5014203094E236669E933
:1810380015FEAAC8FE2DC814FE2BC8FEA9C82BC9F6AFF5CDFE0ECD017F
:181050000BF1EBC1E3EBED53DB82ED43DD82F5CD010BF1C17921D912E1
:18106800C27010A34F78A2E9B34F78B2E92187103AA4821F7A175F16E7
:181080006478BAD0C36D0F891079B71FC1D1F5CD000F21CB10E5CA7944
:1810980018AF32A482D5CD66157E23234E2346D1C5F5CD6A15CD5B1872
:1810B000F157E17BB2C87AD601D8AFBB3CD0151D0ABE2303CAB3103F7F
:1810C800C329183C8FC1A0C6FF9FC33018165ACD100FCDFE0ECD010B63
:1810E0007B2F4F7A2FCDD912C1C31C0F2BCD4A0AC8CDB6082C01EC1027
:1810F800C5F6AF32A38246CDED0ADAE205AF4F32A482CD4A0ADA1611DC
:18111000CDED0ADA23114FCD4A0ADA1711CDED0AD21711D624C23211C6
:181128003C32A4820F814FCD4A0A3AC2823DCAEF11F242117ED628CA0B
:18114000C711AF32C282E550592AD5827C92C253117D9311D782CA868D
:18115800152ACF82EB2ACD827C92C267117D93CA7D11799623C2721164
:18117000789623CAB91123232323C36011E1E3D511F20F7C92C28A11CC
:181188007D93D1CABC11E3E5C50106002AD182E509C1E5CDAA05E122B3
:1811A000D182606922CF822B36007C92C2A7117D93C2A711D17323725C
:1811B80023EBE1C932DE8221760522DB82E1C9E52AA382E357D5C5CD3B
:1811D000F50AC1F1EBE3E5EB3C577EFE2CCACD11CDB6082922C782E1D5
:1811E80022A3821E00D511E5F52ACF823E19ED5BD1827C92C201127DFD
:1812000093CA2A127EB923C20C127EB8235E235623C2F5113AA382B7D2
:18121800C2EB05F1444DCA861596CA8C121E10C3F605110400F1CA1655
:181230000B712370234FCDBF05232322BC8271233AA3821779010B005F
:18124800D24D12C10371237023F5E5CDEF18EBE1F13DC24512F5424B2F
:18126000EB19DAD705CDC80522D1822B36007C92C26B127D93C26B12B0
:1812780003572ABC825EEB2909EB2B2B73237223F1DAB412474F7E23ED
:1812900016E15E235623E3F57C92C29F127D93D22512E5CDEF18D11940
:1812A800F13D444DC291122929C109EB2AC782C92AD182EB2100003905
:1812C0003AA482B7CAD412CD6615CD52142A5182EB2ABA827D934F7CAB
:1812D8009A41501E0021A482730690C335183AA28247AFC3DA12CD790C
:1812F00013CD6B1301F20BC5D5CDB60828CDFA10E5EB2B562B5EE1CDDE
:18130800FE0ECDB60829CDB608B1444DE3712370C3B813CD7913D5CDD0
:18132000D60FCDFE0EE35E2356237AB3CAEE057E23666FE52AD582E371
:1813380022D5822AD982E52AD782E5D511D78221DB82EDA0EDA0EDA0EE
:18135000EDA0E1CDFB0E2BCD4A0AC2E205E122D782E122D982E122D5BA
:1813680082E1C9E52A5382237CB5E1C01E16C3F605CDB608A43E803257
:18138000C282B647CDFF10C3FE0ECDFE0ECDAA19CDBE13CD661501C752
:1813980015C57E2323E5CD2414E14E2346CDB213E56FCD5915D1C9CD95
:1813B000241421B682E5772323732372E1C92B062250E50EFF237E0CFE
:1813C800B7CAD413BACAD413B8C2C513FE22CC4A0AE323EB79CDB213AC
:1813E00011B6822AA88222DB823E0132A482EBEDA0EDA0EDA0EDA0EB38
:1813F8007C92C2FF137D9322A882E17EC01E1EC3F60523CDBE13CD6692
:1814100015CD5B181C1DC80ACDC108FE0DCC280D03C31514B70EF1F528
:181428002A5182EB2ABA822F4F06FF09237C92C23C147D93DA46142229
:18144000BA8223EBF1C9F11E1ACAF605BFF5012614C52AA68222BA823E
:18145800210000E52A5182E521AA82ED5BA8827C92C26E147D9301630F
:1814700014C2C3142ACD82ED5BCF827C92C282147D93CA90147E2323FD
:18148800B7CDC614C37714C1ED5BD1827C92C29B147D93CAF414CD5BBB
:1814A000187BE509B7F28F1422BC82E14E0600090923ED5BBC827C9209
:1814B800C2BD147D93CA901401B214C5F6807E23235E235623F0B7C8DC
:1814D000444D2ABA827C92C2DC147D936069D8E1E37C92C2E8147D93FC
:1814E800E3E56069D0C1F1F1E5D5C5C9D1E17DB4C82B462B4EE52B2BD0
:181500006E26000950592B444D2ABA82CDAD05E171237060692BC355FB
:1815180014C5E52ADB82E3CD870FE3CDFF0E7EE52ADB82E5861E1CDA0A
:18153000F605CDAF13D1CD6A15E3CD6915E52AB882EBCD5015CD501536
:1815480021190FE3E5C3E013E1E37E23234E23466F2C2DC80A120313C3
:18156000C35A15CDFF0E2ADB82EBCD8815EBC0D550591B4E2ABA827C17
:1815780092C286157D93C28615470922BA82E1C92AA8822B462B4E2B3E
:181590002B7C92C07D93C022A882C901E912C5CD6315AF5732A4827E83
:1815A800B7C901E912C5CD9F15CA160B23235E23561AC93E01CDAF13B0
:1815C000CDB6162AB88273C1C3E013CD6616AFE34FE57EB8DAD91578A7
:1815D800110E00C5CD2414C1E1E5232346236668060009444DCDB213DC
:1815F0006FCD5915D1CD6A15C3E013CD6616D1D51A90C3CF15EB7ECDF0
:181608006B160405CA160BC51EFFFE29CA1E16CDB6082CCDB316CDB67E
:181620000829F1E301D115C53DBE0600D04F7E91BB47D843C9CD9F156B
:18163800CA31175F23237E23666FE5194672E3C57EFE24C25416CD2C4A
:181650001DC36216FE25C25F16CDA41DC36216CD0919C1E170C9EBCD85
:18166800B60829C1D1C543C9CDB616323F82CD3E82C3E912CDA016C303
:181680000682CDA016F51E002BCD4A0ACA9616CDB6082CCDB316C1CD97
:181698003E82ABA0CA9716C9CDB316323F82320782CDB6082CC3B31668
:1816B000CD4A0ACDFB0ECDFB0A7AB7C2160B2BCD4A0A7BC9CD010B1AC2
:1816C800C3E912CDFB0ECD010BD5CDB6082CCDB316D112C921911ACD36
:1816E0005B18C30217C1D178B7CA47183ADE82B7CA5E17CDE31BCDDBB6
:1816F8001B3E11D343C3131CC1D178B7C83ADE82B7CA5E17CDE31BCDB7
:18171000DB1B3E10D343C3131CDC80176863AF4779B7C23C174A5465F9
:181728006F78D608FEE0C21F17AF32DE82C90529CB12CB11F236177866
:181740005C45B7CA4F1721DE828677D23117C87821DE82B7FC67174639
:18175800237EE680A94FED53DB82ED43DD82C91CC014C00CC00E803447
:18177000C0C3F1057E835F237E8A57237E894FC921DF827E2F77AF6F00
:1817880090477D9B5F7D9A577D994FC90600D608DAA317435A510E00EB
:1817A000C39617C6096FAF2DC8CB19CB1ACB1BCB18C3A617000000814C
:1817B800CDDB1B3E09D343C3131CC1D13ADE82B7C8CDE31BCDDB1B3E90
:1817D00012D343C3131C2ADB82E52ADD82E5012084110000ED53DB82BA
:1817E800ED43DD82C1D13ADE82B7CAE505CDE31BCDDB1B3E13D343C30B
:18180000131CED5BDB82ED4BDD8278B7C8C602DAF10547CD021721DEAA
:181818008234C0C3F1053ADE82B7C83ADD82FE2F179FC03CC9CD1E182C
:18183000068811000021DE824F70060023368017C31917CD1E18F021C4
:18184800DD827EEE8077C911DB82EDA0EDA0EDA0EDA0C95E2356234E4A
:18186000234623C921DD827E07371F773F1F2323777907371F4F1FAE3C
:18187800C978B7CA1E18212718E5CD1E1879C821DD82AE79F8CD9318C0
:181890001FA9C92378BEC02B79BEC02B7ABEC02B7B96C0E1E1C9474F34
:1818A800575FB7C8E5ED5BDB82ED4BDD82CD6418AE67FCCF183E98902B
:1818C000CD94177C17DC67170600DC8017E1C91B7AA33CC00BC921DE81
:1818D800827EFE983ADB82D07ECDA61836987BF57917CD1917F1C9214C
:1818F000000078B1C878061029DA2512CB2117D2061919DA251210F009
:18190800C9FE2DF5CA1519FE2BCA15192BCD311747575F2F4FCD4A0AE9
:18192000DA6619FE2ECA4119FE45C24519CD4A0ACD3810CD4A0ADA8BE7
:181938001914C24519AF935F0C0CCA1D19E57B90F45E19F25419F5CD15
:18195000D617F13CC24819D1F1CC4718EBC9C8F5CD0218F13DC9D557DA
:18196800788947C5E5D5CD0218F1D630CD7D19E1C1D1C31D192ADB826C
:18198000E52ADD82E5CD3018C300177B0707830786D6305FC33319E51B
:18199800217205CD0B14E1EBAF0698CD3518210A14E521E082E5CD1E09
:1819B000183620F2B819362D233630CA7C1AE5FC4718AFF5CD821A0154
:1819C800439111F84FCD7918B7E2E519F1CD5F19F5C3C719CDD617F16D
:1819E0003CF5CD821ACDDC163CCDA618ED53DB82ED43DD82010603F1A8
:1819F800813CFA061AFE08D2061A3C473E023D3DE1F511951A05C21757
:181A10001A362E2336302305362ECC6218C5E5EBED5BDB82ED4BDD8214
:181A2800062F047B965F237A9E5723799E4F2B2BD22A1ACD741723ED0E
:181A400053DB82ED43DD82EBE17023C10DC2171A05CA601A2B7EFE300F
:181A5800CA541AFE2EC46218F1CA7F1A364523362BF2701A362D2F3C37
:181A7000062F04D60AD2721AC63A237023772371E1C901749411F72348
:181A8800CD7918B7E1E2DC19E900000080A08601102700E80300640063
:181AA000000A0000010000214718E3E9CDDB1B3E01D343C3131CC1D13B
:181AB800CDE31BCDDB1B3E0BD343C3131CCDDB1B3E0AD343C3131CCD57
:181AD0001E18211982FA491B213A8211DB82EDA0EDA0EDA0EDA02119F5
:181AE80082C886E6070600772387874F09CD5B18CDC4173A18823CE645
:181B0000030600FE0188321882214D1B87874F09CDDF16ED5BDB82ED2E
:181B18004BDD827B59EE4F4F21DF8236802B463680211782347ED6AB5F
:181B3000C2371B770C151CCD1C17113A8221DB82EDA0EDA0EDA0EDA056
:181B4800C9772B772B77C3131B68B1466899E9926910D17568CDDB1B4B
:181B60003E03D343C3131CCDDB1B3E02D343C3131CCDDB1B3E04D343FE
:181B7800C3131CCDDB1B3E06D343C3131CCDDB1B3E05D343C3131CCD79
:181B9000DB1B3E07D343C3131CC300003E0CCFC9ED45CDB3167B32429E
:181BA80082C9CDFB0ECD010BED534682ED534882C9CD010BD5E1462358
:181BC0007EC3DA12CDFB0ECD010BD5CDB6082CCDFB0ECD010BE373237D
:181BD80072E1C9ED5BDB82ED4BDD8278B7CA091CFEBFD2F105FE40DAE2
:181BF000091CD68017CB211F4737CB197BD3427AD34279D34278D342A4
:181C0800C90100005059C3FC1BE3E3DB4307DA111CE67CC23E1CDB42EA
:181C200047DB424FDB4257DB425F78CB2117CB19CB2FC68047ED53DB08
:181C380082ED43DD82C90FCB67C2E505CB5FC2160BCB4FC2F1050100ED
:181C5000005059C3351CC0CD771C1B2AA682AFED52DA6F1CED53A68277
:181C680021CEFF1922518213ED530482C39A1CD7FE3AC2771C0E00CDD7
:181C8000B71C47CDB71C57CDB71C5FCDB71C3DCAAC1C3CC2F405C9CD40
:181C9800771CCDB71C121310F9CDB71C79B7C2691DC3971CCDB71C792C
:181CB000B7C2691DC3E702CDC81C070707076FCDC81CB56F814F7DC94A
:181CC800D7D630FE0AD8D607C9CDFE0ECD010BC521E0827AFE00CAEE77
:181CE0001CCD0D1D78FE30CAEC1C702371237BCD0D1D7AFE00C2FE1C74
:181CF80078FE30CA001D70237123AF772377C121E082C3901347E60F7A
:181D1000FE0ADA171DC607C6304F780F0F0F0FE60FFE0ADA281DC607F6
:181D2800C63047C9EB210000CD481DDA691DC33F1DCD481DDA601D292E
:181D4000292929B56FC3391D131AFE20CA481DD630D8FE0ADA5C1DD64A
:181D580007FE0AD8FE103FC9EB7A4BE5CDD912E1C91E26C3F605CDFEB2
:181D70000ECD010BC521E08206110578FE01CA8B1DCB13CB12D27A1D03
:181D8800C38F1DCB13CB123E30CE00772305C28B1DAF772377C121E052
:181DA00082C39013EB210000CDC21DDAD01DD63029B56FCDC21DD2AE45
:181DB8001DEB7A4BE5CDD912E1C9131AFE20CAC21DFE30D8FE323FC9CD
:051DD0001E28C3F6050A
:00000001FF
